^C:\USERS\BE ORIGINAL\16520641_CG\PROJECT1\PROJECT1\DRAWPOLYGON.CPP
/c /I"C:\USERS\BE ORIGINAL\PICTURES\SDL\INCLUDE" /ZI /nologo /W3 /WX- /diagnostics:classic /sdl /Od /Oy- /D _MBCS /Gm- /EHsc /RTC1 /MDd /GS /fp:precise /Zc:wchar_t /Zc:forScope /Zc:inline /Fo"DEBUG\\" /Fd"DEBUG\VC141.PDB" /Gd /TP /analyze- /FC C:\USERS\BE ORIGINAL\16520641_CG\PROJECT1\PROJECT1\DRAWPOLYGON.CPP
^C:\USERS\BE ORIGINAL\16520641_CG\PROJECT1\PROJECT1\ELLIPSE.CPP
/c /I"C:\USERS\BE ORIGINAL\PICTURES\SDL\INCLUDE" /ZI /nologo /W3 /WX- /diagnostics:classic /sdl /Od /Oy- /D _MBCS /Gm- /EHsc /RTC1 /MDd /GS /fp:precise /Zc:wchar_t /Zc:forScope /Zc:inline /Fo"DEBUG\\" /Fd"DEBUG\VC141.PDB" /Gd /TP /analyze- /FC C:\USERS\BE ORIGINAL\16520641_CG\PROJECT1\PROJECT1\ELLIPSE.CPP
^C:\USERS\BE ORIGINAL\16520641_CG\PROJECT1\PROJECT1\LINE.CPP
/c /I"C:\USERS\BE ORIGINAL\PICTURES\SDL\INCLUDE" /ZI /nologo /W3 /WX- /diagnostics:classic /sdl /Od /Oy- /D _MBCS /Gm- /EHsc /RTC1 /MDd /GS /fp:precise /Zc:wchar_t /Zc:forScope /Zc:inline /Fo"DEBUG\\" /Fd"DEBUG\VC141.PDB" /Gd /TP /analyze- /FC C:\USERS\BE ORIGINAL\16520641_CG\PROJECT1\PROJECT1\LINE.CPP
^C:\USERS\BE ORIGINAL\16520641_CG\PROJECT1\PROJECT1\PARAPOL.CPP
/c /I"C:\USERS\BE ORIGINAL\PICTURES\SDL\INCLUDE" /ZI /nologo /W3 /WX- /diagnostics:classic /sdl /Od /Oy- /D _MBCS /Gm- /EHsc /RTC1 /MDd /GS /fp:precise /Zc:wchar_t /Zc:forScope /Zc:inline /Fo"DEBUG\\" /Fd"DEBUG\VC141.PDB" /Gd /TP /analyze- /FC C:\USERS\BE ORIGINAL\16520641_CG\PROJECT1\PROJECT1\PARAPOL.CPP
^C:\USERS\BE ORIGINAL\VIDEOS\FRAMEWORK-CG\FILLCOLOR.CPP
/c /I"C:\USERS\BE ORIGINAL\PICTURES\SDL\INCLUDE" /ZI /nologo /W3 /WX- /diagnostics:classic /sdl /Od /Oy- /D _MBCS /Gm- /EHsc /RTC1 /MDd /GS /fp:precise /Zc:wchar_t /Zc:forScope /Zc:inline /Fo"DEBUG\\" /Fd"DEBUG\VC141.PDB" /Gd /TP /analyze- /FC C:\USERS\BE ORIGINAL\VIDEOS\FRAMEWORK-CG\FILLCOLOR.CPP
^C:\USERS\BE ORIGINAL\16520641_CG\PROJECT1\PROJECT1\CIRCLE.CPP
/c /I"C:\USERS\BE ORIGINAL\PICTURES\SDL\INCLUDE" /ZI /nologo /W3 /WX- /diagnostics:classic /sdl /Od /Oy- /D _MBCS /Gm- /EHsc /RTC1 /MDd /GS /fp:precise /Zc:wchar_t /Zc:forScope /Zc:inline /Fo"DEBUG\\" /Fd"DEBUG\VC141.PDB" /Gd /TP /analyze- /FC C:\USERS\BE ORIGINAL\16520641_CG\PROJECT1\PROJECT1\CIRCLE.CPP
^C:\USERS\BE ORIGINAL\VIDEOS\FRAMEWORK-CG\BEZIER.CPP
/c /I"C:\USERS\BE ORIGINAL\PICTURES\SDL\INCLUDE" /ZI /nologo /W3 /WX- /diagnostics:classic /sdl /Od /Oy- /D _MBCS /Gm- /EHsc /RTC1 /MDd /GS /fp:precise /Zc:wchar_t /Zc:forScope /Zc:inline /Fo"DEBUG\\" /Fd"DEBUG\VC141.PDB" /Gd /TP /analyze- /FC C:\USERS\BE ORIGINAL\VIDEOS\FRAMEWORK-CG\BEZIER.CPP
^C:\USERS\BE ORIGINAL\16520641_CG\PROJECT1\PROJECT1\BEZIER.CPP
/c /I"C:\USERS\BE ORIGINAL\PICTURES\SDL\INCLUDE" /ZI /nologo /W3 /WX- /diagnostics:classic /sdl /Od /Oy- /D _MBCS /Gm- /EHsc /RTC1 /MDd /GS /fp:precise /Zc:wchar_t /Zc:forScope /Zc:inline /Fo"DEBUG\\" /Fd"DEBUG\VC141.PDB" /Gd /TP /analyze- /FC C:\USERS\BE ORIGINAL\16520641_CG\PROJECT1\PROJECT1\BEZIER.CPP
^C:\USERS\BE ORIGINAL\16520641_CG\PROJECT1\PROJECT1\CLIPPING.CPP
/c /I"C:\USERS\BE ORIGINAL\PICTURES\SDL\INCLUDE" /ZI /nologo /W3 /WX- /diagnostics:classic /sdl /Od /Oy- /D _MBCS /Gm- /EHsc /RTC1 /MDd /GS /fp:precise /Zc:wchar_t /Zc:forScope /Zc:inline /Fo"DEBUG\\" /Fd"DEBUG\VC141.PDB" /Gd /TP /analyze- /FC C:\USERS\BE ORIGINAL\16520641_CG\PROJECT1\PROJECT1\CLIPPING.CPP
^C:\USERS\BE ORIGINAL\NEW FOLDER\16520641_CG\PROJECT1\PROJECT1\CIRCLE.CPP
/c /I"C:\USERS\BE ORIGINAL\PICTURES\SDL\INCLUDE" /ZI /nologo /W3 /WX- /diagnostics:classic /sdl /Od /Oy- /D _MBCS /Gm- /EHsc /RTC1 /MDd /GS /fp:precise /Zc:wchar_t /Zc:forScope /Zc:inline /Fo"DEBUG\\" /Fd"DEBUG\VC141.PDB" /Gd /TP /analyze- /FC C:\USERS\BE ORIGINAL\NEW FOLDER\16520641_CG\PROJECT1\PROJECT1\CIRCLE.CPP
^C:\USERS\BE ORIGINAL\NEW FOLDER\16520641_CG\PROJECT1\PROJECT1\DRAWPOLYGON.CPP
/c /I"C:\USERS\BE ORIGINAL\PICTURES\SDL\INCLUDE" /ZI /nologo /W3 /WX- /diagnostics:classic /sdl /Od /Oy- /D _MBCS /Gm- /EHsc /RTC1 /MDd /GS /fp:precise /Zc:wchar_t /Zc:forScope /Zc:inline /Fo"DEBUG\\" /Fd"DEBUG\VC141.PDB" /Gd /TP /analyze- /FC C:\USERS\BE ORIGINAL\NEW FOLDER\16520641_CG\PROJECT1\PROJECT1\DRAWPOLYGON.CPP
^C:\USERS\BE ORIGINAL\NEW FOLDER\16520641_CG\PROJECT1\PROJECT1\ELLIPSE.CPP
/c /I"C:\USERS\BE ORIGINAL\PICTURES\SDL\INCLUDE" /ZI /nologo /W3 /WX- /diagnostics:classic /sdl /Od /Oy- /D _MBCS /Gm- /EHsc /RTC1 /MDd /GS /fp:precise /Zc:wchar_t /Zc:forScope /Zc:inline /Fo"DEBUG\\" /Fd"DEBUG\VC141.PDB" /Gd /TP /analyze- /FC C:\USERS\BE ORIGINAL\NEW FOLDER\16520641_CG\PROJECT1\PROJECT1\ELLIPSE.CPP
^C:\USERS\BE ORIGINAL\NEW FOLDER\16520641_CG\PROJECT1\PROJECT1\LINE.CPP
/c /I"C:\USERS\BE ORIGINAL\PICTURES\SDL\INCLUDE" /ZI /nologo /W3 /WX- /diagnostics:classic /sdl /Od /Oy- /D _MBCS /Gm- /EHsc /RTC1 /MDd /GS /fp:precise /Zc:wchar_t /Zc:forScope /Zc:inline /Fo"DEBUG\\" /Fd"DEBUG\VC141.PDB" /Gd /TP /analyze- /FC C:\USERS\BE ORIGINAL\NEW FOLDER\16520641_CG\PROJECT1\PROJECT1\LINE.CPP
^C:\USERS\BE ORIGINAL\NEW FOLDER\16520641_CG\PROJECT1\PROJECT1\PARAPOL.CPP
/c /I"C:\USERS\BE ORIGINAL\PICTURES\SDL\INCLUDE" /ZI /nologo /W3 /WX- /diagnostics:classic /sdl /Od /Oy- /D _MBCS /Gm- /EHsc /RTC1 /MDd /GS /fp:precise /Zc:wchar_t /Zc:forScope /Zc:inline /Fo"DEBUG\\" /Fd"DEBUG\VC141.PDB" /Gd /TP /analyze- /FC C:\USERS\BE ORIGINAL\NEW FOLDER\16520641_CG\PROJECT1\PROJECT1\PARAPOL.CPP
^C:\USERS\BE ORIGINAL\NEW FOLDER\16520641_CG\PROJECT1\PROJECT1\BEZIER.CPP
/c /I"C:\USERS\BE ORIGINAL\PICTURES\SDL\INCLUDE" /ZI /nologo /W3 /WX- /diagnostics:classic /sdl /Od /Oy- /D _MBCS /Gm- /EHsc /RTC1 /MDd /GS /fp:precise /Zc:wchar_t /Zc:forScope /Zc:inline /Fo"DEBUG\\" /Fd"DEBUG\VC141.PDB" /Gd /TP /analyze- /FC C:\USERS\BE ORIGINAL\NEW FOLDER\16520641_CG\PROJECT1\PROJECT1\BEZIER.CPP
^C:\USERS\BE ORIGINAL\NEW FOLDER\16520641_CG\PROJECT1\PROJECT1\CLIPPING.CPP
/c /I"C:\USERS\BE ORIGINAL\PICTURES\SDL\INCLUDE" /ZI /nologo /W3 /WX- /diagnostics:classic /sdl /Od /Oy- /D _MBCS /Gm- /EHsc /RTC1 /MDd /GS /fp:precise /Zc:wchar_t /Zc:forScope /Zc:inline /Fo"DEBUG\\" /Fd"DEBUG\VC141.PDB" /Gd /TP /analyze- /FC C:\USERS\BE ORIGINAL\NEW FOLDER\16520641_CG\PROJECT1\PROJECT1\CLIPPING.CPP
^C:\USERS\BE ORIGINAL\NEW FOLDER\16520641_CG\PROJECT1\PROJECT1\FILLCOLOR.CPP
/c /I"C:\USERS\BE ORIGINAL\PICTURES\SDL\INCLUDE" /ZI /nologo /W3 /WX- /diagnostics:classic /sdl /Od /Oy- /D _MBCS /Gm- /EHsc /RTC1 /MDd /GS /fp:precise /Zc:wchar_t /Zc:forScope /Zc:inline /Fo"DEBUG\\" /Fd"DEBUG\VC141.PDB" /Gd /TP /analyze- /FC C:\USERS\BE ORIGINAL\NEW FOLDER\16520641_CG\PROJECT1\PROJECT1\FILLCOLOR.CPP
^C:\USERS\BE ORIGINAL\NEW FOLDER\16520641_CG\PROJECT1\PROJECT1\MAIN.CPP
/c /I"C:\USERS\BE ORIGINAL\PICTURES\SDL\INCLUDE" /ZI /nologo /W3 /WX- /diagnostics:classic /sdl /Od /Oy- /D _MBCS /Gm- /EHsc /RTC1 /MDd /GS /fp:precise /Zc:wchar_t /Zc:forScope /Zc:inline /Fo"DEBUG\\" /Fd"DEBUG\VC141.PDB" /Gd /TP /analyze- /FC C:\USERS\BE ORIGINAL\NEW FOLDER\16520641_CG\PROJECT1\PROJECT1\MAIN.CPP
^C:\USERS\BE ORIGINAL\16520641_CG\PROJECT1\PROJECT1\MAIN.CPP
/c /I"C:\USERS\BE ORIGINAL\PICTURES\SDL\INCLUDE" /ZI /nologo /W3 /WX- /diagnostics:classic /sdl /Od /Oy- /D _MBCS /Gm- /EHsc /RTC1 /MDd /GS /fp:precise /Zc:wchar_t /Zc:forScope /Zc:inline /Fo"DEBUG\\" /Fd"DEBUG\VC141.PDB" /Gd /TP /analyze- /FC C:\USERS\BE ORIGINAL\16520641_CG\PROJECT1\PROJECT1\MAIN.CPP
^C:\USERS\BE ORIGINAL\16520641_CG\PROJECT1\PROJECT1\FILLCOLOR.CPP
/c /I"C:\USERS\BE ORIGINAL\PICTURES\SDL\INCLUDE" /ZI /nologo /W3 /WX- /diagnostics:classic /sdl /Od /Oy- /D _MBCS /Gm- /EHsc /RTC1 /MDd /GS /fp:precise /Zc:wchar_t /Zc:forScope /Zc:inline /Fo"DEBUG\\" /Fd"DEBUG\VC141.PDB" /Gd /TP /analyze- /FC C:\USERS\BE ORIGINAL\16520641_CG\PROJECT1\PROJECT1\FILLCOLOR.CPP
^C:\USERS\BE ORIGINAL\NEW FOLDER (2)\PROJECT1\PROJECT1\BEZIER.CPP
/c /I"C:\USERS\BE ORIGINAL\PICTURES\SDL\INCLUDE" /ZI /nologo /W3 /WX- /diagnostics:classic /sdl /Od /Oy- /D _MBCS /Gm- /EHsc /RTC1 /MDd /GS /fp:precise /Zc:wchar_t /Zc:forScope /Zc:inline /Fo"DEBUG\\" /Fd"DEBUG\VC141.PDB" /Gd /TP /analyze- /FC C:\USERS\BE ORIGINAL\NEW FOLDER (2)\PROJECT1\PROJECT1\BEZIER.CPP
^C:\USERS\BE ORIGINAL\NEW FOLDER (2)\PROJECT1\PROJECT1\CIRCLE.CPP
/c /I"C:\USERS\BE ORIGINAL\PICTURES\SDL\INCLUDE" /ZI /nologo /W3 /WX- /diagnostics:classic /sdl /Od /Oy- /D _MBCS /Gm- /EHsc /RTC1 /MDd /GS /fp:precise /Zc:wchar_t /Zc:forScope /Zc:inline /Fo"DEBUG\\" /Fd"DEBUG\VC141.PDB" /Gd /TP /analyze- /FC C:\USERS\BE ORIGINAL\NEW FOLDER (2)\PROJECT1\PROJECT1\CIRCLE.CPP
^C:\USERS\BE ORIGINAL\NEW FOLDER (2)\PROJECT1\PROJECT1\CLIPPING.CPP
/c /I"C:\USERS\BE ORIGINAL\PICTURES\SDL\INCLUDE" /ZI /nologo /W3 /WX- /diagnostics:classic /sdl /Od /Oy- /D _MBCS /Gm- /EHsc /RTC1 /MDd /GS /fp:precise /Zc:wchar_t /Zc:forScope /Zc:inline /Fo"DEBUG\\" /Fd"DEBUG\VC141.PDB" /Gd /TP /analyze- /FC C:\USERS\BE ORIGINAL\NEW FOLDER (2)\PROJECT1\PROJECT1\CLIPPING.CPP
^C:\USERS\BE ORIGINAL\NEW FOLDER (2)\PROJECT1\PROJECT1\DRAWPOLYGON.CPP
/c /I"C:\USERS\BE ORIGINAL\PICTURES\SDL\INCLUDE" /ZI /nologo /W3 /WX- /diagnostics:classic /sdl /Od /Oy- /D _MBCS /Gm- /EHsc /RTC1 /MDd /GS /fp:precise /Zc:wchar_t /Zc:forScope /Zc:inline /Fo"DEBUG\\" /Fd"DEBUG\VC141.PDB" /Gd /TP /analyze- /FC C:\USERS\BE ORIGINAL\NEW FOLDER (2)\PROJECT1\PROJECT1\DRAWPOLYGON.CPP
^C:\USERS\BE ORIGINAL\NEW FOLDER (2)\PROJECT1\PROJECT1\ELLIPSE.CPP
/c /I"C:\USERS\BE ORIGINAL\PICTURES\SDL\INCLUDE" /ZI /nologo /W3 /WX- /diagnostics:classic /sdl /Od /Oy- /D _MBCS /Gm- /EHsc /RTC1 /MDd /GS /fp:precise /Zc:wchar_t /Zc:forScope /Zc:inline /Fo"DEBUG\\" /Fd"DEBUG\VC141.PDB" /Gd /TP /analyze- /FC C:\USERS\BE ORIGINAL\NEW FOLDER (2)\PROJECT1\PROJECT1\ELLIPSE.CPP
^C:\USERS\BE ORIGINAL\NEW FOLDER (2)\PROJECT1\PROJECT1\FILLCOLOR.CPP
/c /I"C:\USERS\BE ORIGINAL\PICTURES\SDL\INCLUDE" /ZI /nologo /W3 /WX- /diagnostics:classic /sdl /Od /Oy- /D _MBCS /Gm- /EHsc /RTC1 /MDd /GS /fp:precise /Zc:wchar_t /Zc:forScope /Zc:inline /Fo"DEBUG\\" /Fd"DEBUG\VC141.PDB" /Gd /TP /analyze- /FC C:\USERS\BE ORIGINAL\NEW FOLDER (2)\PROJECT1\PROJECT1\FILLCOLOR.CPP
^C:\USERS\BE ORIGINAL\NEW FOLDER (2)\PROJECT1\PROJECT1\LINE.CPP
/c /I"C:\USERS\BE ORIGINAL\PICTURES\SDL\INCLUDE" /ZI /nologo /W3 /WX- /diagnostics:classic /sdl /Od /Oy- /D _MBCS /Gm- /EHsc /RTC1 /MDd /GS /fp:precise /Zc:wchar_t /Zc:forScope /Zc:inline /Fo"DEBUG\\" /Fd"DEBUG\VC141.PDB" /Gd /TP /analyze- /FC C:\USERS\BE ORIGINAL\NEW FOLDER (2)\PROJECT1\PROJECT1\LINE.CPP
^C:\USERS\BE ORIGINAL\NEW FOLDER (2)\PROJECT1\PROJECT1\MAIN.CPP
/c /I"C:\USERS\BE ORIGINAL\PICTURES\SDL\INCLUDE" /ZI /nologo /W3 /WX- /diagnostics:classic /sdl /Od /Oy- /D _MBCS /Gm- /EHsc /RTC1 /MDd /GS /fp:precise /Zc:wchar_t /Zc:forScope /Zc:inline /Fo"DEBUG\\" /Fd"DEBUG\VC141.PDB" /Gd /TP /analyze- /FC C:\USERS\BE ORIGINAL\NEW FOLDER (2)\PROJECT1\PROJECT1\MAIN.CPP
^C:\USERS\BE ORIGINAL\NEW FOLDER (2)\PROJECT1\PROJECT1\PARAPOL.CPP
/c /I"C:\USERS\BE ORIGINAL\PICTURES\SDL\INCLUDE" /ZI /nologo /W3 /WX- /diagnostics:classic /sdl /Od /Oy- /D _MBCS /Gm- /EHsc /RTC1 /MDd /GS /fp:precise /Zc:wchar_t /Zc:forScope /Zc:inline /Fo"DEBUG\\" /Fd"DEBUG\VC141.PDB" /Gd /TP /analyze- /FC C:\USERS\BE ORIGINAL\NEW FOLDER (2)\PROJECT1\PROJECT1\PARAPOL.CPP
